<svg xmlns="http://www.w3.org/2000/svg" xmlns:xlink="http://www.w3.org/1999/xlink" width="31" height="32" viewBox="0 0 31 32">
    <defs>
        <path id="a" d="M30.152 27.442V.025H0v27.417z"/>
    </defs>
    <g fill="none" fill-rule="evenodd">
        <g fill="#9A9A9A">
            <path d="M10.894 17.013a.7.7 0 0 0-.7-.7H7.75a.7.7 0 0 0-.7.7v2.442a.7.7 0 0 0 .7.7h2.443a.7.7 0 0 0 .7-.7v-2.442zM16.998 17.013a.7.7 0 0 0-.7-.7h-2.442a.7.7 0 0 0-.7.7v2.442a.7.7 0 0 0 .7.7h2.443a.7.7 0 0 0 .699-.7v-2.442zM23.103 17.013a.7.7 0 0 0-.7-.7H19.96a.7.7 0 0 0-.7.7v2.442a.7.7 0 0 0 .7.7h2.443a.7.7 0 0 0 .7-.7v-2.442zM10.894 23.118a.7.7 0 0 0-.7-.7H7.75a.7.7 0 0 0-.7.7v2.442a.7.7 0 0 0 .7.7h2.443a.7.7 0 0 0 .7-.7v-2.442zM16.998 23.118a.7.7 0 0 0-.7-.7h-2.442a.7.7 0 0 0-.7.7v2.442a.7.7 0 0 0 .7.7h2.443a.7.7 0 0 0 .699-.7v-2.442z"/>
        </g>
        <path fill="#9A9A9A" d="M23.103 23.118a.7.7 0 0 0-.7-.7H19.96a.7.7 0 0 0-.7.7v2.442a.7.7 0 0 0 .7.7h2.443a.7.7 0 0 0 .7-.7v-2.442z"/>
        <g transform="translate(0 3.396)">
            <mask id="b" fill="#fff">
                <use xlink:href="#a"/>
            </mask>
            <path fill="#9A9A9A" d="M26.575 23.3c0 .66-.535 1.195-1.195 1.195H4.72c-.659 0-1.194-.535-1.194-1.195V12.008c0-.66.535-1.195 1.195-1.195h20.66c.66 0 1.194.535 1.194 1.195V23.3zM27.47.038v3.73a3.047 3.047 0 0 1-3.054 3.045H22.49c-1.686 0-3.072-1.358-3.072-3.045V.025h-8.682v3.743c0 1.687-1.386 3.045-3.072 3.045H5.738a3.047 3.047 0 0 1-3.054-3.045V.038A2.777 2.777 0 0 0 0 2.8v21.862c0 1.526 1.238 2.78 2.764 2.78H27.39c1.524 0 2.764-1.256 2.764-2.78V2.8A2.777 2.777 0 0 0 27.47.038z" mask="url(#b)"/>
        </g>
        <g fill="#9A9A9A">
            <path d="M5.73 8.209h1.906c.579 0 1.047-.468 1.047-1.047V1.047C8.683.469 8.215 0 7.636 0H5.731c-.578 0-1.047.469-1.047 1.047v6.115c0 .579.469 1.047 1.047 1.047M22.466 8.209h1.905c.578 0 1.047-.468 1.047-1.047V1.047C25.418.469 24.949 0 24.37 0h-1.905c-.579 0-1.048.469-1.048 1.047v6.115c0 .579.47 1.047 1.048 1.047"/>
        </g>
    </g>
</svg>
