<svg xmlns="http://www.w3.org/2000/svg" width="84" height="84" viewBox="0 0 84 84">
    <g fill="#000" fill-rule="evenodd">
        <path d="M70 71.4c3.088 0 5.6-2.512 5.6-5.6 0-3.088-2.512-5.6-5.6-5.6a5.606 5.606 0 0 0-5.6 5.6c0 3.088 2.512 5.6 5.6 5.6zm-7 3.766a8.461 8.461 0 0 1 2.366-2.366A8.461 8.461 0 0 1 63 70.434a8.461 8.461 0 0 1-2.366 2.366A8.461 8.461 0 0 1 63 75.166zm-14 0a8.461 8.461 0 0 1 2.366-2.366A8.461 8.461 0 0 1 49 70.434a8.461 8.461 0 0 1-2.366 2.366A8.461 8.461 0 0 1 49 75.166zm-14 0a8.461 8.461 0 0 1 2.366-2.366A8.461 8.461 0 0 1 35 70.434a8.461 8.461 0 0 1-2.366 2.366A8.461 8.461 0 0 1 35 75.166zm-14 0a8.461 8.461 0 0 1 2.366-2.366A8.461 8.461 0 0 1 21 70.434a8.461 8.461 0 0 1-2.366 2.366A8.461 8.461 0 0 1 21 75.166zM8.4 65.8c0 3.088 2.512 5.6 5.6 5.6 3.088 0 5.6-2.512 5.6-5.6 0-3.088-2.512-5.6-5.6-5.6a5.606 5.606 0 0 0-5.6 5.6zM28 60.2a5.606 5.606 0 0 0-5.6 5.6c0 3.088 2.512 5.6 5.6 5.6 3.088 0 5.6-2.512 5.6-5.6 0-3.088-2.512-5.6-5.6-5.6zm14 0a5.606 5.606 0 0 0-5.6 5.6c0 3.088 2.512 5.6 5.6 5.6 3.088 0 5.6-2.512 5.6-5.6 0-3.088-2.512-5.6-5.6-5.6zm14 0a5.606 5.606 0 0 0-5.6 5.6c0 3.088 2.512 5.6 5.6 5.6 3.088 0 5.6-2.512 5.6-5.6 0-3.088-2.512-5.6-5.6-5.6zM2.8 50.4H56V42H2.8v8.4zm31.448-11.2a6.85 6.85 0 0 1-1.22-1.23L30.8 35v4.2h3.448zM8.4 35c0 2.316 1.884 4.2 4.2 4.2h7v-2.8h-7a1.4 1.4 0 0 1-1.4-1.4v-7H14v5.6h7a1.4 1.4 0 0 1 1.4 1.4v4.2H28v-8.4a1.4 1.4 0 0 1 2.52-.84l4.747 6.33a4.158 4.158 0 0 0 2.94 1.66 4.146 4.146 0 0 0 3.21-1.039l6.942-6.171-2.264-2.264-6.021 4.817a1.401 1.401 0 0 1-1.994-.255l-6.72-8.96A4.22 4.22 0 0 0 28 22.4h-2.008L22.2 28.721a1.401 1.401 0 0 1-2.4 0L16.008 22.4H12.6a4.205 4.205 0 0 0-4.2 4.2V35zm14.328-12.6h-3.456L21 25.28l1.728-2.88zM78.4 65.8c0 2.92-1.5 5.494-3.766 7a8.398 8.398 0 0 1 3.766 7V84h-2.8v-4.2c0-3.088-2.512-5.6-5.6-5.6a5.606 5.606 0 0 0-5.6 5.6V84h-2.8v-4.2c0-3.088-2.512-5.6-5.6-5.6a5.606 5.606 0 0 0-5.6 5.6V84h-2.8v-4.2c0-3.088-2.512-5.6-5.6-5.6a5.606 5.606 0 0 0-5.6 5.6V84h-2.8v-4.2c0-3.088-2.512-5.6-5.6-5.6a5.606 5.606 0 0 0-5.6 5.6V84h-2.8v-4.2c0-3.088-2.512-5.6-5.6-5.6a5.606 5.606 0 0 0-5.6 5.6V84H5.6v-4.2c0-2.92 1.5-5.494 3.766-7a8.398 8.398 0 0 1-3.766-7c0-4.633 3.767-8.4 8.4-8.4a8.394 8.394 0 0 1 7 3.766 8.398 8.398 0 0 1 7-3.766 8.394 8.394 0 0 1 7 3.766 8.398 8.398 0 0 1 7-3.766 8.394 8.394 0 0 1 7 3.766 8.398 8.398 0 0 1 7-3.766v-4.2H2.8v19.6H0V40.6a1.4 1.4 0 0 1 1.4-1.4h5.636C6.147 38.027 5.6 36.582 5.6 35v-8.4c0-3.86 3.14-7 7-7H28a7.034 7.034 0 0 1 5.6 2.799l5.855 7.805 5.871-4.697a1.4 1.4 0 0 1 1.865.103l4.2 4.2a1.402 1.402 0 0 1-.06 2.036l-8.051 7.157c-.086.075-.187.126-.275.197H61.6V42h-2.8v8.4h2.8v2.8h-2.8v4.69a8.435 8.435 0 0 1 4.2 3.276 8.398 8.398 0 0 1 7-3.766c4.633 0 8.4 3.767 8.4 8.4z"/>
        <path d="M50.4 47.6h2.8v-2.8h-2.8zM44.8 47.6h2.8v-2.8h-2.8zM39.2 47.6H42v-2.8h-2.8zM21 2.8c3.088 0 5.6 2.512 5.6 5.6 0 3.088-2.512 5.6-5.6 5.6a5.606 5.606 0 0 1-5.6-5.6c0-3.088 2.512-5.6 5.6-5.6m0 14c4.633 0 8.4-3.767 8.4-8.4C29.4 3.767 25.633 0 21 0c-4.633 0-8.4 3.767-8.4 8.4 0 4.633 3.767 8.4 8.4 8.4M79.8 15.4c-.771 0-1.4-.627-1.4-1.4 0-.773.629-1.4 1.4-1.4.771 0 1.4.627 1.4 1.4 0 .773-.629 1.4-1.4 1.4M64.4 7c-.771 0-1.4-.627-1.4-1.4 0-.773.629-1.4 1.4-1.4.771 0 1.4.627 1.4 1.4 0 .773-.629 1.4-1.4 1.4M56 21c-.771 0-1.4-.627-1.4-1.4 0-.773.629-1.4 1.4-1.4.771 0 1.4.627 1.4 1.4 0 .773-.629 1.4-1.4 1.4m-15.4-4.2c-.771 0-1.4-.627-1.4-1.4 0-.773.629-1.4 1.4-1.4.771 0 1.4.627 1.4 1.4 0 .773-.629 1.4-1.4 1.4m39.2-7a4.17 4.17 0 0 0-2.379.745L68.55 6.108c.02-.168.05-.334.05-.508 0-2.316-1.884-4.2-4.2-4.2a4.205 4.205 0 0 0-4.2 4.2c0 1.088.426 2.07 1.106 2.817l-4.697 7.045c-.2-.03-.4-.062-.609-.062a4.199 4.199 0 0 0-3.81 2.456l-7.425-2.121c.01-.114.035-.22.035-.335 0-2.316-1.884-4.2-4.2-4.2a4.205 4.205 0 0 0-4.2 4.2c0 2.316 1.884 4.2 4.2 4.2a4.184 4.184 0 0 0 3.011-1.282l8.356 2.387C52.454 22.483 54.068 23.8 56 23.8c2.316 0 4.2-1.884 4.2-4.2 0-1.088-.426-2.07-1.106-2.817l4.697-7.045c.2.03.4.062.609.062a4.18 4.18 0 0 0 2.908-1.182l8.471 4.237A4.14 4.14 0 0 0 75.6 14c0 2.316 1.884 4.2 4.2 4.2 2.316 0 4.2-1.884 4.2-4.2 0-2.316-1.884-4.2-4.2-4.2M78.4 25.2h2.8v-2.8h-2.8zM72.8 25.2h2.8v-2.8h-2.8zM67.2 25.2H70v-2.8h-2.8z"/>
    </g>
</svg>
