<svg xmlns="http://www.w3.org/2000/svg" xmlns:xlink="http://www.w3.org/1999/xlink" width="100" height="100" viewBox="0 0 100 100">
    <defs>
        <circle id="a" cx="50" cy="50" r="50"/>
        <path id="c" d="M35.32.155H.056v51.001h35.262v-51z"/>
    </defs>
    <g fill="none" fill-rule="evenodd">
        <g>
            <mask id="b" fill="#fff">
                <use xlink:href="#a"/>
            </mask>
            <use fill="#F2F2F2" xlink:href="#a"/>
            <g mask="url(#b)">
                <g transform="translate(32.937 18.762)">
                    <mask id="d" fill="#fff">
                        <use xlink:href="#c"/>
                    </mask>
                    <path fill="#D4D4D4" d="M5.974 6.452a9.118 9.118 0 0 1 6.699-2.883h10.03c.223 0 .443.01.663.025l-2.658 7.04c-.221.354-1.286 1.924-3.717 3.554-2.373 1.592-6.53 3.541-13.145 4.162l-.333-5.071a8.992 8.992 0 0 1 2.461-6.827zm23.428 0a8.993 8.993 0 0 1 2.46 6.826l-.164 2.51c-3.184-.796-4.753-1.407-5.523-1.802-1.873-.961-2.296-1.757-2.307-2l.003-.01.003-.008 2.83-7.495a9.182 9.182 0 0 1 2.698 1.979zm-5.587 39.716a12.727 12.727 0 0 1-12.254 0C7.737 44.08 5.284 40.25 5 35.925l-.931-14.17c9.677-.881 14.955-4.395 17.556-6.917.695.792 1.688 1.522 2.972 2.18 1.387.712 3.695 1.46 6.873 2.229l-1.095 16.677c-.284 4.326-2.737 8.155-6.56 10.244zM.53 20.291l1.041 15.856c.361 5.494 3.476 10.359 8.334 13.012a16.214 16.214 0 0 0 7.783 1.997c2.673 0 5.347-.666 7.784-1.997 4.857-2.653 7.972-7.518 8.333-13.012l1.19-18.119.297-4.528c.23-3.494-.972-6.826-3.383-9.382C29.5 1.562 26.23.155 22.704.155H12.673c-3.526 0-6.796 1.407-9.206 3.963C1.057 6.674-.145 10.006.084 13.5l.446 6.79z" mask="url(#d)"/>
                </g>
            </g>
            <g fill="#D4D4D4" mask="url(#b)">
                <path d="M11.276 100.182l1.294-7.098c1.566-8.585 8.238-15.493 16.741-17.448l20.1 19.964c.335.333.774.5 1.214.5.44 0 .88-.167 1.215-.5l20.099-19.964c8.503 1.955 15.175 8.863 16.741 17.448l1.294 7.098H11.276zm27.298-25.108l9.621 9.557-2.485 2.467-3.59-3.566-8.505-8.448c.222-.007.445-.01.667-.01h4.292zm24.102 0h4.292c.222 0 .445.003.667.01l-8.505 8.448-8.505 8.448-2.485-2.468 3.7-3.675 10.836-10.763zm31.047 26.51l-1.662-9.108a25.146 25.146 0 0 0-7.065-13.4A25.45 25.45 0 0 0 71.7 72.1a25.797 25.797 0 0 0-4.732-.439h-5.003c-.456 0-.893.18-1.215.5L50.625 82.217 40.5 72.161c-.322-.32-.759-.5-1.214-.5h-5.004a25.8 25.8 0 0 0-4.732.438 25.452 25.452 0 0 0-13.296 6.976 25.148 25.148 0 0 0-7.065 13.4l-1.662 9.11a1.7 1.7 0 0 0 .372 1.397c.327.388.81.613 1.32.613h82.813c.51 0 .992-.224 1.319-.613a1.7 1.7 0 0 0 .372-1.398z"/>
            </g>
        </g>
    </g>
</svg>
