<svg xmlns="http://www.w3.org/2000/svg" xmlns:xlink="http://www.w3.org/1999/xlink" width="55" height="56" viewBox="0 0 55 56">
    <defs>
        <path id="a" d="M.044 0h10.225v10.34H.044V0z"/>
        <path id="c" d="M.002 40.843h53.277V.029H.002v40.814z"/>
    </defs>
    <g fill="none" fill-rule="evenodd">
        <path fill="#D71920" d="M50.749 16.583a4.32 4.32 0 0 0-.955-.965c.366-.268.689-.595.955-.965.265.37.588.697.954.965a4.321 4.321 0 0 0-.954.965m3.444-1.781c-1.454 0-2.637-1.196-2.637-2.667a.812.812 0 0 0-.807-.816.812.812 0 0 0-.808.816c0 1.47-1.183 2.667-2.637 2.667a.812.812 0 0 0-.807.816c0 .451.361.816.807.816 1.454 0 2.637 1.197 2.637 2.667 0 .45.362.816.808.816a.812.812 0 0 0 .807-.816c0-1.47 1.183-2.667 2.637-2.667a.812.812 0 0 0 .807-.816.812.812 0 0 0-.807-.816M4.251 14.653c.266.37.589.697.955.965a4.316 4.316 0 0 0-.955.965 4.314 4.314 0 0 0-.954-.965c.366-.268.689-.595.954-.965m-.807 4.448c0 .45.362.816.807.816a.812.812 0 0 0 .808-.816c0-1.47 1.183-2.667 2.637-2.667a.812.812 0 0 0 .807-.816.812.812 0 0 0-.807-.816c-1.454 0-2.637-1.196-2.637-2.667a.812.812 0 0 0-.808-.816.812.812 0 0 0-.807.816c0 1.47-1.183 2.667-2.637 2.667a.812.812 0 0 0-.807.816c0 .451.361.816.807.816 1.454 0 2.637 1.196 2.637 2.667"/>
        <g transform="translate(22.344)">
            <mask id="b" fill="#fff">
                <use xlink:href="#a"/>
            </mask>
            <path fill="#D71920" d="M5.156 3.602c.4.628.93 1.164 1.55 1.568a5.187 5.187 0 0 0-1.55 1.568 5.186 5.186 0 0 0-1.55-1.568 5.186 5.186 0 0 0 1.55-1.568M.851 5.986c1.929 0 3.498 1.587 3.498 3.537 0 .451.361.817.807.817a.812.812 0 0 0 .808-.817c0-1.95 1.569-3.537 3.498-3.537a.812.812 0 0 0 .807-.816.812.812 0 0 0-.807-.817c-1.93 0-3.498-1.586-3.498-3.537A.812.812 0 0 0 5.156 0a.812.812 0 0 0-.807.816c0 1.95-1.57 3.537-3.498 3.537a.812.812 0 0 0-.807.817c0 .45.361.816.807.816" mask="url(#b)"/>
        </g>
        <path fill="#D71920" d="M12.38 26.992l2.76-7.91a.055.055 0 0 1 .051-.036h24.402c.022 0 .044.016.051.037l2.76 7.909H12.38zm31.825 1.287a.824.824 0 0 0 .102-.743l-3.14-8.996a1.672 1.672 0 0 0-1.574-1.126H15.191c-.706 0-1.338.452-1.573 1.125l-3.14 8.997c-.182.523.214 1.088.761 1.088h32.307a.805.805 0 0 0 .659-.345zM46.39 41.739c0 .848-1.496 1.796-3.499 1.796-2.002 0-3.498-.948-3.498-1.796 0-.848 1.496-1.796 3.498-1.796 2.003 0 3.498.948 3.498 1.796m-8.61 0c0 1.922 2.245 3.428 5.112 3.428s5.113-1.506 5.113-3.428-2.246-3.428-5.113-3.428c-2.867 0-5.112 1.506-5.112 3.428M11.893 43.535c-2.002 0-3.498-.948-3.498-1.796 0-.848 1.496-1.796 3.498-1.796 2.002 0 3.498.948 3.498 1.796 0 .848-1.496 1.796-3.498 1.796m0-5.224c-2.867 0-5.112 1.506-5.112 3.428s2.245 3.428 5.112 3.428 5.113-1.506 5.113-3.428-2.246-3.428-5.113-3.428"/>
        <g transform="translate(.752 14.773)">
            <mask id="d" fill="#fff">
                <use xlink:href="#c"/>
            </mask>
            <path fill="#D71920" d="M51.665 14.83H48.34l.457-1.85h2.868v1.85zm-1.722 8.028v9.387H35.197v-6.15c0-2.37-1.907-4.299-4.251-4.299h-8.61c-2.345 0-4.252 1.929-4.252 4.3v6.149H3.338v-9.387c0-.56.17-1.095.491-1.55l3.423-4.845h29.721a.812.812 0 0 0 .807-.816.812.812 0 0 0-.807-.816H7.977l3.976-11.39a2.643 2.643 0 0 1 2.486-1.78h24.403c1.116 0 2.115.715 2.486 1.78l3.976 11.39h-4.887a.812.812 0 0 0-.807.816c0 .451.361.816.807.816h5.612l3.423 4.845c.321.455.49.99.49 1.55zM48.22 37.36v1.796c0 .03-.025.054-.054.054H43a.054.054 0 0 1-.054-.054V37.36h5.274zm-37.887 1.796c0 .03-.024.054-.054.054H5.114a.054.054 0 0 1-.054-.054V37.36h5.275v1.796zm39.482-5.279a2.644 2.644 0 0 1-2.51 1.85H5.975a2.644 2.644 0 0 1-2.51-1.85h46.35zm-30.118-1.632h13.885v-1.85H19.698v1.85zm.127-6.966a2.644 2.644 0 0 1 2.51-1.85h8.61c1.173 0 2.17.778 2.51 1.85h-13.63zm-.127 3.483h13.885v-1.85H19.698v1.85zM1.616 14.831v-1.85h2.868l.457 1.85H1.616zm50.856-3.483h-4.305a.809.809 0 0 0-.783.618l-.567 2.294L42.85 2.897A4.261 4.261 0 0 0 38.842.03H14.439c-1.799 0-3.41 1.153-4.009 2.868L6.464 14.26l-.567-2.294a.81.81 0 0 0-.783-.618H.809a.812.812 0 0 0-.807.816v3.483c0 .451.36.816.807.816h4.459L2.515 20.36a4.308 4.308 0 0 0-.791 2.499v10.203a4.31 4.31 0 0 0 1.723 3.454l-.001.029v2.612c0 .93.748 1.687 1.668 1.687h5.166a1.68 1.68 0 0 0 1.669-1.687V37.36h29.383v1.796c0 .93.748 1.687 1.669 1.687h5.166a1.68 1.68 0 0 0 1.668-1.687v-2.612l-.001-.029a4.31 4.31 0 0 0 1.723-3.454V22.858c0-.901-.274-1.765-.792-2.499l-2.752-3.896h4.46a.812.812 0 0 0 .806-.816v-3.483a.812.812 0 0 0-.807-.816z" mask="url(#d)"/>
        </g>
        <path fill="#D71920" d="M9.31 37.331h5.167a.812.812 0 0 0 .807-.816.812.812 0 0 0-.807-.816H9.31a.812.812 0 0 0-.807.816c0 .45.361.816.807.816M39.5 36.515c0 .45.362.816.808.816h5.167a.812.812 0 0 0 .807-.816.812.812 0 0 0-.807-.816h-5.167a.812.812 0 0 0-.807.816"/>
    </g>
</svg>
