<svg xmlns="http://www.w3.org/2000/svg" width="87" height="87" viewBox="0 0 87 87">
    <path fill="#000" fill-rule="evenodd" d="M48.16 27.964h3.108v-3.107H48.16v3.107zm-6.214 0h3.108v-3.107h-3.108v3.107zm-6.214 0h3.107v-3.107h-3.107v3.107zm18.643 9.322c0 .857.696 1.553 1.554 1.553h.203l-1.496 2.245c-.17.255-.261.556-.261.863V43.5c0 .856-.698 1.553-1.554 1.553H40.393a1.556 1.556 0 0 1-1.554-1.553v-6.214c0-.856.698-1.554 1.554-1.554H52.82c.856 0 1.554.698 1.554 1.554zm-13.982-4.661a4.666 4.666 0 0 0-4.66 4.66V43.5c0 2.57 2.09 4.66 4.66 4.66H52.82c2.57 0 4.661-2.09 4.661-4.66v-1.083l2.846-4.27a1.552 1.552 0 0 0-1.293-2.416l-1.818.001a4.67 4.67 0 0 0-4.396-3.107H40.393zm1.553 9.322h9.322v-3.108h-9.322v3.108zM31.071 9.32h15.536V6.214H31.071v3.107zm-3.107-4.66c0-.856.698-1.554 1.554-1.554H48.16c.856 0 1.553.698 1.553 1.554v6.214c0 .856-.697 1.554-1.553 1.554H35.732c-.49 0-.95.23-1.243.621l-1.864 2.486v-1.554c0-.857-.696-1.553-1.554-1.553h-1.553a1.556 1.556 0 0 1-1.554-1.554V4.661zm1.554 10.875v4.66a1.553 1.553 0 0 0 2.796.933l4.195-5.593H48.16c2.57 0 4.66-2.091 4.66-4.661V4.661c0-2.57-2.09-4.661-4.66-4.661H29.518a4.666 4.666 0 0 0-4.66 4.66v6.215c0 2.57 2.09 4.66 4.66 4.66zM76.125 65.25H62.143c-.858 0-1.554.696-1.554 1.554v17.089h-3.107v-21.75c0-.856.698-1.554 1.554-1.554H69.91c.857 0 1.553-.696 1.553-1.553V48.16h-3.107v9.321h-17.09v-3.107h12.43c.857 0 1.553-.696 1.553-1.554V43.5h6.214c2.57 0 4.661 2.091 4.661 4.66v17.09zm-40.393-7.768h-17.09v-9.321h-3.106v10.875c0 .857.696 1.553 1.553 1.553h10.875c.856 0 1.554.698 1.554 1.554v21.75H26.41v-17.09c0-.857-.696-1.553-1.554-1.553H10.875V48.16c0-2.569 2.091-4.66 4.66-4.66h6.215v9.321c0 .858.696 1.554 1.554 1.554h12.428v3.107zm48.16-17.09V60.59c0 2.57-2.09 4.661-4.66 4.661V48.16c0-4.282-3.485-7.767-7.768-7.767h-7.768c-.857 0-1.553.696-1.553 1.554v9.32H49.714c-.857 0-1.553.697-1.553 1.554v4.661h-9.322v-4.66c0-.858-.696-1.554-1.553-1.554H24.857v-9.321c0-.858-.696-1.554-1.553-1.554h-7.768c-4.283 0-7.768 3.485-7.768 7.768V65.25a4.666 4.666 0 0 1-4.66-4.66V40.392H0v20.196c0 3.177 1.922 5.907 4.66 7.11V87h3.108V68.357h15.536v17.09c0 .857.696 1.553 1.553 1.553h7.768V60.59h21.75V87h7.768c.857 0 1.553-.696 1.553-1.554V68.357h15.536V87h3.107V67.699C85.08 66.496 87 63.766 87 60.589V40.393h-3.107zM68.358 21.75a6.22 6.22 0 0 1 6.214 6.214 6.22 6.22 0 0 1-6.214 6.214 6.22 6.22 0 0 1-6.214-6.214 6.22 6.22 0 0 1 6.214-6.214zm0 15.536c5.14 0 9.322-4.181 9.322-9.322 0-5.14-4.181-9.321-9.322-9.321-5.14 0-9.321 4.18-9.321 9.321s4.18 9.322 9.321 9.322zM18.643 21.75a6.22 6.22 0 0 1 6.214 6.214 6.22 6.22 0 0 1-6.214 6.214 6.22 6.22 0 0 1-6.214-6.214 6.22 6.22 0 0 1 6.214-6.214zm0 15.536c5.14 0 9.321-4.181 9.321-9.322 0-5.14-4.18-9.321-9.321-9.321-5.14 0-9.322 4.18-9.322 9.321s4.181 9.322 9.322 9.322z"/>
</svg>
