<svg xmlns="http://www.w3.org/2000/svg" xmlns:xlink="http://www.w3.org/1999/xlink" width="48" height="48" viewBox="0 0 48 48">
    <defs>
        <path id="a" d="M4.986 0H9.97v22H0V0h4.986z"/>
    </defs>
    <g fill="none" fill-rule="evenodd">
        <circle cx="24" cy="24" r="24" fill="#1A1A1A"/>
        <g transform="translate(19 13)">
            <mask id="b" fill="#fff">
                <use xlink:href="#a"/>
            </mask>
            <path fill="#FFF" d="M6.312 0h3.652c0 1.26.003 2.52-.002 3.781-.62.01-1.24-.002-1.859.006-.391.03-.83.03-1.144.31-.25.262-.268.65-.273.997-.003.707-.011 1.415-.003 2.122 1.096 0 2.192-.004 3.288.002-.092 1.26-.268 2.512-.362 3.771-.976.027-1.953-.001-2.928.015L6.678 22H2.684c0-3.665.003-7.33-.002-10.996-.894-.015-1.788.009-2.682-.011.003-1.258 0-2.515.001-3.773.89-.019 1.78.014 2.67-.016.053-1.284-.064-2.577.1-3.855.13-.817.378-1.663.961-2.262.504-.544 1.211-.833 1.92-.962.217-.06.447-.048.66-.125" mask="url(#b)"/>
        </g>
    </g>
</svg>
