<svg xmlns="http://www.w3.org/2000/svg" xmlns:xlink="http://www.w3.org/1999/xlink" width="17" height="13" viewBox="0 0 17 13">
    <defs>
        <path id="a" d="M0 12.968V0h16.984v12.968H0z"/>
    </defs>
    <g fill="none" fill-rule="evenodd">
        <mask id="b" fill="#fff">
            <use xlink:href="#a"/>
        </mask>
        <path fill="#9A9A9A" d="M16.885.58l-6.016 6.045v4.979a.34.34 0 0 1-.257.33l-4.076 1.024a.336.336 0 0 1-.29-.062.34.34 0 0 1-.13-.268V6.625L.098.58A.34.34 0 0 1 .34 0h16.307a.34.34 0 0 1 .24.58" mask="url(#b)"/>
    </g>
</svg>
