<svg xmlns="http://www.w3.org/2000/svg" width="87" height="87" viewBox="0 0 87 87">
    <g fill="#000" fill-rule="evenodd">
        <path d="M78.139 37.623h3.454L43.41 3.39 5.229 37.623h3.454c.8 0 1.447.648 1.447 1.447v40.515a4.346 4.346 0 0 0 4.341 4.341h13.023V44.858c0-.8.648-1.447 1.447-1.447h28.94c.799 0 1.447.648 1.447 1.447v39.068H72.35a4.346 4.346 0 0 0 4.34-4.34V39.07c0-.8.649-1.447 1.448-1.447zM44.858 83.926h11.576V73.797H44.858v10.13zm-14.47 0h11.576V73.797H30.388v10.13zm0-13.023h11.576V59.327H30.388v11.576zm0-14.47h11.576V46.305H30.388v10.128zm14.47 0h11.576V46.305H44.858v10.128zm0 14.47h11.576V59.327H44.858v11.576zM59.328 5.79v7.986L72.35 25.45V5.789H59.328zm27.01 32.203a1.447 1.447 0 0 1-.964 2.525h-5.788v39.068c0 3.99-3.246 7.235-7.235 7.235H14.47c-3.99 0-7.235-3.245-7.235-7.235V40.517H1.448a1.447 1.447 0 0 1-.966-2.525L42.444.37a1.446 1.446 0 0 1 1.932 0l12.058 10.81V4.342c0-.799.648-1.447 1.447-1.447h15.917c.798 0 1.447.648 1.447 1.447v23.703l11.094 9.947z"/>
        <path d="M50.646 66.562h2.894v-2.894h-2.894zM47.752 20.259v1.447h-2.894v-5.522c1.68.6 2.894 2.19 2.894 4.075zm-2.894 8.682h2.894V24.6h-2.894v4.34zm-5.788 0h2.894V24.6H39.07v4.34zm2.894-12.757v5.522H39.07v-1.447c0-1.884 1.214-3.476 2.894-4.075zm-5.788 4.075v10.129c0 .798.648 1.447 1.447 1.447H49.2c.799 0 1.447-.649 1.447-1.447v-10.13c0-3.988-3.246-7.234-7.235-7.234-3.99 0-7.235 3.246-7.235 7.235zM36.176 37.623h2.894v-2.894h-2.894zM41.964 37.623h2.894v-2.894h-2.894zM47.752 37.623h2.894v-2.894h-2.894z"/>
    </g>
</svg>
